{
    "items": [
        {
            "external_urls": {
                "spotify": "https://open.spotify.com/artist/196lKsA13K3keVXMDFK66q"
            },
            "followers": {
                "href": null,
                "total": 977311
            },
            "genres": [
                "indie folk",
                "new americana",
                "north carolina indie",
                "north carolina roots",
                "progressive bluegrass",
                "stomp and holler"
            ],
            "href": "https://api.spotify.com/v1/artists/196lKsA13K3keVXMDFK66q",
            "id": "196lKsA13K3keVXMDFK66q",
            "images": [
                {
                    "height": 640,
                    "url": "https://i.scdn.co/image/ab6761610000e5eba8258195e525b7a4c7fca7df",
                    "width": 640
                },
                {
                    "height": 320,
                    "url": "https://i.scdn.co/image/ab67616100005174a8258195e525b7a4c7fca7df",
                    "width": 320
                },
                {
                    "height": 160,
                    "url": "https://i.scdn.co/image/ab6761610000f178a8258195e525b7a4c7fca7df",
                    "width": 160
                }
            ],
            "name": "The Avett Brothers",
            "popularity": 57,
            "type": "artist",
            "uri": "spotify:artist:196lKsA13K3keVXMDFK66q"
        },
        {
            "external_urls": {
                "spotify": "https://open.spotify.com/artist/0ubGY2CcC0tvR0eE6hJaT8"
            },
            "followers": {
                "href": null,
                "total": 203878
            },
            "genres": [
                "ann arbor indie",
                "bedroom soul"
            ],
            "href": "https://api.spotify.com/v1/artists/0ubGY2CcC0tvR0eE6hJaT8",
            "id": "0ubGY2CcC0tvR0eE6hJaT8",
            "images": [
                {
                    "height": 640,
                    "url": "https://i.scdn.co/image/ab6761610000e5ebf40de62d5f9f3640f0245b5c",
                    "width": 640
                },
                {
                    "height": 320,
                    "url": "https://i.scdn.co/image/ab67616100005174f40de62d5f9f3640f0245b5c",
                    "width": 320
                },
                {
                    "height": 160,
                    "url": "https://i.scdn.co/image/ab6761610000f178f40de62d5f9f3640f0245b5c",
                    "width": 160
                }
            ],
            "name": "Charlie Burg",
            "popularity": 50,
            "type": "artist",
            "uri": "spotify:artist:0ubGY2CcC0tvR0eE6hJaT8"
        },
        {
            "external_urls": {
                "spotify": "https://open.spotify.com/artist/1VgjAK52kjkQJQQRhTn02t"
            },
            "followers": {
                "href": null,
                "total": 254198
            },
            "genres": [
                "indie soul",
                "neo r&b"
            ],
            "href": "https://api.spotify.com/v1/artists/1VgjAK52kjkQJQQRhTn02t",
            "id": "1VgjAK52kjkQJQQRhTn02t",
            "images": [
                {
                    "height": 640,
                    "url": "https://i.scdn.co/image/ab6761610000e5eb96cc10e9646ef8ff1ac854dd",
                    "width": 640
                },
                {
                    "height": 320,
                    "url": "https://i.scdn.co/image/ab6761610000517496cc10e9646ef8ff1ac854dd",
                    "width": 320
                },
                {
                    "height": 160,
                    "url": "https://i.scdn.co/image/ab6761610000f17896cc10e9646ef8ff1ac854dd",
                    "width": 160
                }
            ],
            "name": "Moonchild",
            "popularity": 44,
            "type": "artist",
            "uri": "spotify:artist:1VgjAK52kjkQJQQRhTn02t"
        },
        {
            "external_urls": {
                "spotify": "https://open.spotify.com/artist/6mK0vAO13gT8jWYANyoXAl"
            },
            "followers": {
                "href": null,
                "total": 71521
            },
            "genres": [
                "aussietronica"
            ],
            "href": "https://api.spotify.com/v1/artists/6mK0vAO13gT8jWYANyoXAl",
            "id": "6mK0vAO13gT8jWYANyoXAl",
            "images": [
                {
                    "height": 640,
                    "url": "https://i.scdn.co/image/ab6761610000e5ebd41f7a07fd1cffb2200586f0",
                    "width": 640
                },
                {
                    "height": 320,
                    "url": "https://i.scdn.co/image/ab67616100005174d41f7a07fd1cffb2200586f0",
                    "width": 320
                },
                {
                    "height": 160,
                    "url": "https://i.scdn.co/image/ab6761610000f178d41f7a07fd1cffb2200586f0",
                    "width": 160
                }
            ],
            "name": "Young Franco",
            "popularity": 47,
            "type": "artist",
            "uri": "spotify:artist:6mK0vAO13gT8jWYANyoXAl"
        },
        {
            "external_urls": {
                "spotify": "https://open.spotify.com/artist/2FXC3k01G6Gw61bmprjgqS"
            },
            "followers": {
                "href": null,
                "total": 6890352
            },
            "genres": [
                "irish singer-songwriter",
                "modern rock",
                "pov: indie"
            ],
            "href": "https://api.spotify.com/v1/artists/2FXC3k01G6Gw61bmprjgqS",
            "id": "2FXC3k01G6Gw61bmprjgqS",
            "images": [
                {
                    "height": 640,
                    "url": "https://i.scdn.co/image/ab6761610000e5ebad85a585103dfc2f3439119a",
                    "width": 640
                },
                {
                    "height": 320,
                    "url": "https://i.scdn.co/image/ab67616100005174ad85a585103dfc2f3439119a",
                    "width": 320
                },
                {
                    "height": 160,
                    "url": "https://i.scdn.co/image/ab6761610000f178ad85a585103dfc2f3439119a",
                    "width": 160
                }
            ],
            "name": "Hozier",
            "popularity": 85,
            "type": "artist",
            "uri": "spotify:artist:2FXC3k01G6Gw61bmprjgqS"
        },
        {
            "external_urls": {
                "spotify": "https://open.spotify.com/artist/2Otnykd696YidQYfEGVmNq"
            },
            "followers": {
                "href": null,
                "total": 446384
            },
            "genres": [
                "bachata",
                "dominican pop",
                "reggae en espanol"
            ],
            "href": "https://api.spotify.com/v1/artists/2Otnykd696YidQYfEGVmNq",
            "id": "2Otnykd696YidQYfEGVmNq",
            "images": [
                {
                    "height": 640,
                    "url": "https://i.scdn.co/image/ab6761610000e5eb60f2ccd3d74561e49214d2bf",
                    "width": 640
                },
                {
                    "height": 320,
                    "url": "https://i.scdn.co/image/ab6761610000517460f2ccd3d74561e49214d2bf",
                    "width": 320
                },
                {
                    "height": 160,
                    "url": "https://i.scdn.co/image/ab6761610000f17860f2ccd3d74561e49214d2bf",
                    "width": 160
                }
            ],
            "name": "Vicente Garcia",
            "popularity": 59,
            "type": "artist",
            "uri": "spotify:artist:2Otnykd696YidQYfEGVmNq"
        },
        {
            "external_urls": {
                "spotify": "https://open.spotify.com/artist/1ybINI1qPiFbwDXamRtwxD"
            },
            "followers": {
                "href": null,
                "total": 922941
            },
            "genres": [
                "alternative r&b"
            ],
            "href": "https://api.spotify.com/v1/artists/1ybINI1qPiFbwDXamRtwxD",
            "id": "1ybINI1qPiFbwDXamRtwxD",
            "images": [
                {
                    "height": 640,
                    "url": "https://i.scdn.co/image/ab6761610000e5ebfc5047d95db42b25c1d49aac",
                    "width": 640
                },
                {
                    "height": 320,
                    "url": "https://i.scdn.co/image/ab67616100005174fc5047d95db42b25c1d49aac",
                    "width": 320
                },
                {
                    "height": 160,
                    "url": "https://i.scdn.co/image/ab6761610000f178fc5047d95db42b25c1d49aac",
                    "width": 160
                }
            ],
            "name": "Smino",
            "popularity": 63,
            "type": "artist",
            "uri": "spotify:artist:1ybINI1qPiFbwDXamRtwxD"
        },
        {
            "external_urls": {
                "spotify": "https://open.spotify.com/artist/3SBYl2unJoVzvNIUBC8ftm"
            },
            "followers": {
                "href": null,
                "total": 12320
            },
            "genres": [
                "indie hip hop",
                "uk alternative hip hop"
            ],
            "href": "https://api.spotify.com/v1/artists/3SBYl2unJoVzvNIUBC8ftm",
            "id": "3SBYl2unJoVzvNIUBC8ftm",
            "images": [
                {
                    "height": 640,
                    "url": "https://i.scdn.co/image/ab6761610000e5ebc4a85bc5a31f0057edc3fdba",
                    "width": 640
                },
                {
                    "height": 320,
                    "url": "https://i.scdn.co/image/ab67616100005174c4a85bc5a31f0057edc3fdba",
                    "width": 320
                },
                {
                    "height": 160,
                    "url": "https://i.scdn.co/image/ab6761610000f178c4a85bc5a31f0057edc3fdba",
                    "width": 160
                }
            ],
            "name": "Deema",
            "popularity": 36,
            "type": "artist",
            "uri": "spotify:artist:3SBYl2unJoVzvNIUBC8ftm"
        },
        {
            "external_urls": {
                "spotify": "https://open.spotify.com/artist/59oA5WbbQvomJz2BuRG071"
            },
            "followers": {
                "href": null,
                "total": 1328266
            },
            "genres": [
                "indie soul",
                "uk contemporary r&b"
            ],
            "href": "https://api.spotify.com/v1/artists/59oA5WbbQvomJz2BuRG071",
            "id": "59oA5WbbQvomJz2BuRG071",
            "images": [
                {
                    "height": 640,
                    "url": "https://i.scdn.co/image/ab6761610000e5eb21f6e9ccd576bb2ef541a3fe",
                    "width": 640
                },
                {
                    "height": 320,
                    "url": "https://i.scdn.co/image/ab6761610000517421f6e9ccd576bb2ef541a3fe",
                    "width": 320
                },
                {
                    "height": 160,
                    "url": "https://i.scdn.co/image/ab6761610000f17821f6e9ccd576bb2ef541a3fe",
                    "width": 160
                }
            ],
            "name": "Jungle",
            "popularity": 73,
            "type": "artist",
            "uri": "spotify:artist:59oA5WbbQvomJz2BuRG071"
        },
        {
            "external_urls": {
                "spotify": "https://open.spotify.com/artist/228Gomw7aulbQurdDNRv7r"
            },
            "followers": {
                "href": null,
                "total": 6721
            },
            "genres": [],
            "href": "https://api.spotify.com/v1/artists/228Gomw7aulbQurdDNRv7r",
            "id": "228Gomw7aulbQurdDNRv7r",
            "images": [
                {
                    "height": 640,
                    "url": "https://i.scdn.co/image/ab6761610000e5eba42bc4f415fb50bd4ca408cb",
                    "width": 640
                },
                {
                    "height": 320,
                    "url": "https://i.scdn.co/image/ab67616100005174a42bc4f415fb50bd4ca408cb",
                    "width": 320
                },
                {
                    "height": 160,
                    "url": "https://i.scdn.co/image/ab6761610000f178a42bc4f415fb50bd4ca408cb",
                    "width": 160
                }
            ],
            "name": "Guillaume Ferran",
            "popularity": 32,
            "type": "artist",
            "uri": "spotify:artist:228Gomw7aulbQurdDNRv7r"
        }
    ],
    "total": 269,
    "limit": 10,
    "offset": 0,
    "href": "https://api.spotify.com/v1/me/top/artists?limit=10&time_range=medium_term",
    "next": "https://api.spotify.com/v1/me/top/artists?offset=10&limit=10&time_range=medium_term",
    "previous": null
}